{
  "tenant_id": "9d20d126-4a18-4d67-9b65-d862995f426a",
  "subscription_id": "560d9024-664f-48df-aa98-ec2f6b16344e",
  "client_id": "b30eec4d-0b4f-4714-80f5-2f16f57f59f3",
  "client_secret": "?E51/RQQ9JFSNG:z.HijP768WC3rKFPu"
}